{
    "app-id" : "be.dylanvanassche.sunshine",
    "runtime" : "org.gnome.Platform",
    "runtime-version" : "40",
    "sdk" : "org.gnome.Sdk",
    "command" : "sunshine",
    "finish-args" : [
        "--share=network",
        "--share=ipc",
        "--socket=fallback-x11",
        "--socket=wayland"
    ],
    "cleanup" : [
        "/include",
        "/lib/pkgconfig",
        "/man",
        "/share/doc",
        "/share/gtk-doc",
        "/share/man",
        "/share/pkgconfig",
        "*.la",
        "*.a"
    ],
    "modules" : [
        {
            "name" : "libhandy",
            "buildsystem" : "meson",
            "config-opts" : [
                "-Dprofiling=false",
                "-Dintrospection=enabled",
                "-Dgtk_doc=false",
                "-Dtests=false",
                "-Dexamples=false",
                "-Dvapi=false",
                "-Dglade_catalog=disabled"
            ],
            "sources" : [
                {
                    "type" : "git",
                    "url" : "https://gitlab.gnome.org/GNOME/libhandy",
                    "tag" : "1.4.0"
                }
            ]
        },
        {
      	    "name": "urllib3",
            "buildsystem": "simple",
            "build-commands": [
	        "python3 setup.py install --prefix=/app"
            ],
            "ensure-writable": [
	        "/lib/python*/site-packages/easy-install.pth",
	        "/lib/python*/site-packages/setuptools.pth",
	        "/app/lib/python*/site-packages/easy-install.pth",
	        "/app/lib/python*/site-packages/setuptools.pth"
            ],
            "sources": [{
	        "type": "archive",
	        "url": "https://files.pythonhosted.org/packages/80/be/3ee43b6c5757cabea19e75b8f46eaf05a2f5144107d7db48c7cf3a864f73/urllib3-1.26.7.tar.gz#md5=e0051a87a956e618a6bb514a07fa7773",
	        "sha256": "4987c65554f7a2dbf30c18fd48778ef124af6fab771a377103da0585e2336ece"
            }]
        },
        {
      	    "name": "certifi",
            "buildsystem": "simple",
            "build-commands": [
	        "python3 setup.py install --prefix=/app"
            ],
            "ensure-writable": [
	        "/lib/python*/site-packages/easy-install.pth",
	        "/lib/python*/site-packages/setuptools.pth",
	        "/app/lib/python*/site-packages/easy-install.pth",
	        "/app/lib/python*/site-packages/setuptools.pth"
            ],
            "sources": [{
	        "type": "archive",
	        "url": "https://files.pythonhosted.org/packages/6c/ae/d26450834f0acc9e3d1f74508da6df1551ceab6c2ce0766a593362d6d57f/certifi-2021.10.8.tar.gz#md5=880ed9e5d04aff8f46f5ff82a3a3e395",
	        "sha256": "78884e7c1d4b00ce3cea67b44566851c4343c120abd683433ce934a68ea58872"
            }]
        },
        {
      	    "name": "charset_normalizer",
            "buildsystem": "simple",
            "build-commands": [
	        "python3 setup.py install --prefix=/app"
            ],
            "ensure-writable": [
	        "/lib/python*/site-packages/easy-install.pth",
	        "/lib/python*/site-packages/setuptools.pth",
	        "/app/lib/python*/site-packages/easy-install.pth",
	        "/app/lib/python*/site-packages/setuptools.pth"
            ],
            "sources": [{
	        "type": "archive",
	        "url": "https://files.pythonhosted.org/packages/9f/c5/334c019f92c26e59637bb42bd14a190428874b2b2de75a355da394cf16c1/charset-normalizer-2.0.7.tar.gz#md5=b28e4463613ff3911d5a2dc62b96233f",
	        "sha256": "e019de665e2bcf9c2b64e2e5aa025fa991da8720daa3c1138cadd2fd1856aed0"
            }]
        },
        {
      	    "name": "idna",
            "buildsystem": "simple",
            "build-commands": [
	        "python3 setup.py install --prefix=/app"
            ],
            "ensure-writable": [
	        "/lib/python*/site-packages/easy-install.pth",
	        "/lib/python*/site-packages/setuptools.pth",
	        "/app/lib/python*/site-packages/easy-install.pth",
	        "/app/lib/python*/site-packages/setuptools.pth"
            ],
            "sources": [{
	        "type": "archive",
	        "url": "https://files.pythonhosted.org/packages/62/08/e3fc7c8161090f742f504f40b1bccbfc544d4a4e09eb774bf40aafce5436/idna-3.3.tar.gz#md5=5856306eac5f25db8249e37a4c6ee3e7",
	        "sha256": "9d643ff0a55b762d5cdb124b8eaa99c66322e2157b69160bc32796e824360e6d"
            }]
        },
        {
      	    "name": "requests",
            "buildsystem": "simple",
            "build-commands": [
	        "python3 setup.py install --prefix=/app"
            ],
            "ensure-writable": [
	        "/lib/python*/site-packages/easy-install.pth",
	        "/lib/python*/site-packages/setuptools.pth",
	        "/app/lib/python*/site-packages/easy-install.pth",
	        "/app/lib/python*/site-packages/setuptools.pth"
            ],
            "sources": [{
	        "type": "archive",
	        "url": "https://files.pythonhosted.org/packages/e7/01/3569e0b535fb2e4a6c384bdbed00c55b9d78b5084e0fb7f4d0bf523d7670/requests-2.26.0.tar.gz#md5=8c745949ad3e9ae83d9927fed213db8a",
	        "sha256": "b8aa58f8cf793ffd8782d3d8cb19e66ef36f7aba4353eec859e74678b01b07a7"
            }]
        },
        {
      	    "name": "appdirs",
            "buildsystem": "simple",
            "build-commands": [
	        "python3 setup.py install --prefix=/app"
            ],
            "ensure-writable": [
	        "/lib/python*/site-packages/easy-install.pth",
	        "/lib/python*/site-packages/setuptools.pth",
	        "/app/lib/python*/site-packages/easy-install.pth",
	        "/app/lib/python*/site-packages/setuptools.pth"
            ],
            "sources": [{
	        "type": "archive",
	        "url": "https://files.pythonhosted.org/packages/d7/d8/05696357e0311f5b5c316d7b95f46c669dd9c15aaeecbb48c7d0aeb88c40/appdirs-1.4.4.tar.gz#md5=d6bca12613174185dd9abc8a29f4f012",
	        "sha256": "7d5d0167b2b1ba821647616af46a749d1c653740dd0d2415100fe26e27afdf41"
            }]
        },
        {
      	    "name": "attrs",
            "buildsystem": "simple",
            "build-commands": [
	        "python3 setup.py install --prefix=/app"
            ],
            "ensure-writable": [
	        "/lib/python*/site-packages/easy-install.pth",
	        "/lib/python*/site-packages/setuptools.pth",
	        "/app/lib/python*/site-packages/easy-install.pth",
	        "/app/lib/python*/site-packages/setuptools.pth"
            ],
            "sources": [{
	        "type": "archive",
	        "url": "https://files.pythonhosted.org/packages/ed/d6/3ebca4ca65157c12bd08a63e20ac0bdc21ac7f3694040711f9fd073c0ffb/attrs-21.2.0.tar.gz#md5=06af884070d9180694becdb106e5cd65",
	        "sha256": "ef6aaac3ca6cd92904cdd0d83f629a15f18053ec84e6432106f7a4d04ae4f5fb"
            }]
        },
        {
      	    "name": "cattrs",
            "buildsystem": "simple",
            "build-commands": [
	        "python3 setup.py install --prefix=/app"
            ],
            "ensure-writable": [
	        "/lib/python*/site-packages/easy-install.pth",
	        "/lib/python*/site-packages/setuptools.pth",
	        "/app/lib/python*/site-packages/easy-install.pth",
	        "/app/lib/python*/site-packages/setuptools.pth"
            ],
            "sources": [{
	        "type": "archive",
	        "url": "https://files.pythonhosted.org/packages/d3/6f/7f753ab5bff9c2522398437f9b08879b890a2ac4d880654029b9302a0a0b/cattrs-1.8.0.tar.gz#md5=1e61274bd618d9385bd0d31d3e1e3dd5",
	        "sha256": "5c121ab06a7cac494813c228721a7feb5a6423b17316eeaebf13f5a03e5b0d53"
            }]
        },
        {
      	    "name": "url-normalize",
            "buildsystem": "simple",
            "build-commands": [
	        "python3 setup.py install --prefix=/app"
            ],
            "ensure-writable": [
	        "/lib/python*/site-packages/easy-install.pth",
	        "/lib/python*/site-packages/setuptools.pth",
	        "/app/lib/python*/site-packages/easy-install.pth",
	        "/app/lib/python*/site-packages/setuptools.pth"
            ],
            "sources": [{
	        "type": "archive",
	        "url": "https://files.pythonhosted.org/packages/ec/ea/780a38c99fef750897158c0afb83b979def3b379aaac28b31538d24c4e8f/url-normalize-1.4.3.tar.gz#md5=3e72f94de0c4a98f8ea76cd99cf105d9",
	        "sha256": "d23d3a070ac52a67b83a1c59a0e68f8608d1cd538783b401bc9de2c0fac999b2"
            }]
        },
        {
      	    "name": "requests-cache",
            "buildsystem": "simple",
            "build-commands": [
	        "python3 setup.py install --prefix=/app"
            ],
            "ensure-writable": [
	        "/lib/python*/site-packages/easy-install.pth",
	        "/lib/python*/site-packages/setuptools.pth",
	        "/app/lib/python*/site-packages/easy-install.pth",
	        "/app/lib/python*/site-packages/setuptools.pth"
            ],
            "sources": [{
	        "type": "archive",
	        "url": "https://files.pythonhosted.org/packages/12/c2/cbdf169cb621aeb8b0f1097e357b65e018a30079501fc88c9f889ad61b00/requests-cache-0.8.1.tar.gz#md5=8c2714761fdd6ff596edcad78ad3ecb1",
	        "sha256": "27d3eb276ab3affa9864dfc0475241d6d960dd566d57ec46ffa7759c2c74ed1c"
            }]
        },
        {
      	    "name": "isodate",
            "buildsystem": "simple",
            "build-commands": [
	        "python3 setup.py install --prefix=/app"
            ],
            "ensure-writable": [
	        "/lib/python*/site-packages/easy-install.pth",
	        "/lib/python*/site-packages/setuptools.pth",
	        "/app/lib/python*/site-packages/easy-install.pth",
	        "/app/lib/python*/site-packages/setuptools.pth"
            ],
            "sources": [{
	        "type": "archive",
	        "url": "https://files.pythonhosted.org/packages/b1/80/fb8c13a4cd38eb5021dc3741a9e588e4d1de88d895c1910c6fc8a08b7a70/isodate-0.6.0.tar.gz#md5=0e1203fce27ce65e2d01c5f21c4d428f",
	        "sha256": "2e364a3d5759479cdb2d37cce6b9376ea504db2ff90252a2e5b7cc89cc9ff2d8"
            }]
        },
        {
      	    "name": "pyparsing",
            "buildsystem": "simple",
            "build-commands": [
	        "python3 setup.py install --prefix=/app"
            ],
            "ensure-writable": [
	        "/lib/python*/site-packages/easy-install.pth",
	        "/lib/python*/site-packages/setuptools.pth",
	        "/app/lib/python*/site-packages/easy-install.pth",
	        "/app/lib/python*/site-packages/setuptools.pth"
            ],
            "sources": [{
	        "type": "archive",
	        "url": "https://files.pythonhosted.org/packages/39/cb/69988a9b62158c85288e7d3aeb5634efd506ca92c8a34dfae3bd2a88943a/pyparsing-3.0.5.tar.gz#md5=db54052d5e0e51c74d0bd35a708d8c3a",
	        "sha256": "9329d1c1b51f0f76371c4ded42c5ec4cc0be18456b22193e0570c2da98ed288b"
            }]
        },
        {
      	    "name": "rdflib",
            "buildsystem": "simple",
            "build-commands": [
	        "python3 setup.py install --prefix=/app"
            ],
            "ensure-writable": [
	        "/lib/python*/site-packages/easy-install.pth",
	        "/lib/python*/site-packages/setuptools.pth",
	        "/app/lib/python*/site-packages/easy-install.pth",
	        "/app/lib/python*/site-packages/setuptools.pth"
            ],
            "sources": [{
	        "type": "archive",
	        "url": "https://files.pythonhosted.org/packages/d2/a7/be8244688bfcee37c23733ab4fe8e6afa6d4403bd2674a3ae7bd2cecc77b/rdflib-6.0.2.tar.gz#md5=2cef20c7552fcffd9251823496e5f751",
	        "sha256": "6136ae056001474ee2aff5fc5b956e62a11c3a9c66bb0f3d9c0aaa5fbb56854e"
            }]
        },
        {
      	    "name": "PyXDG",
            "buildsystem": "simple",
            "build-commands": [
	        "python3 setup.py install --prefix=/app"
            ],
            "ensure-writable": [
	        "/lib/python*/site-packages/easy-install.pth",
	        "/lib/python*/site-packages/setuptools.pth",
	        "/app/lib/python*/site-packages/easy-install.pth",
	        "/app/lib/python*/site-packages/setuptools.pth"
            ],
            "sources": [{
	        "type": "archive",
	        "url": "https://gitlab.freedesktop.org/xdg/pyxdg/-/archive/rel-0.27/pyxdg-rel-0.27.tar.gz#md5=3d78b98f529e278fc6a3a0359ba114d2",
	        "sha256": "a05786e758e3dc81d56c85d2132830fd23c156cadc160d664e486db0ca6e6932"
            }]
        },
        {
            "name" : "sunshine",
            "builddir" : true,
            "buildsystem" : "meson",
            "sources" : [
                {
                    "type" : "git",
                    "url" : "file:///home/dylan/Projects/TVTracker/TVTracker"
                }
            ]
        }
    ],
    "build-options" : {
        "env" : {        }
    }
}
